{
    "orders": [
        {
            "ticker": "SUZB3",
            "order_price": 31.41,
            "order_type": "Buy",
            "quantity": 10,
            "order_date": "05/08/2019"
        }
    ]
}
