{
    "orders": [
        {
            "ticker": "TAEE11",
            "order_price": 25.11,
            "order_type": "Buy",
            "quantity": 107,
            "order_date": "04/04/2019"
        },
        {
            "ticker": "TAEE11",
            "order_price": 27.92,
            "order_type": "Sell",
            "quantity": 7,
            "order_date": "05/07/2019"
        }
    ]
}
