{
    "orders": [
        {
            "ticker": "IRDM11",
            "order_price": 124.18,
            "order_type": "Sell",
            "quantity": 11,
            "order_date": "18/11/2020",
            "base_date": 31,
            "emoluments": 0.04,
            "tax": 0.37,
            "income_tax": 0.06
        },
      {
            "ticker": "MYPK3",
            "order_price": 15.05,
            "order_type": "Sell",
            "quantity": 25,
            "order_date": "25/11/2020"
      },
      {
            "ticker": "CVCB3",
            "order_price": 18.30,
            "order_type": "Sell",
            "quantity": 8,
            "order_date": "27/11/2020"
      },
      {
            "ticker": "CVCB11",
            "order_price": 7.03,
            "order_type": "Sell",
            "quantity": 8,
            "order_date": "27/11/2020"
      }
    ]
}
