{
    "orders": [
        {
            "ticker": "SUZB3",
            "order_price": 39.44,
            "order_type": "Buy",
            "quantity": 1,
            "subscription": false,
            "order_date": "04/02/2020"
        },
        {
            "ticker": "RLOG3",
            "order_price": 21.39,
            "order_type": "Buy",
            "quantity": 6,
            "subscription": false,
            "order_date": "04/02/2020"
        },
        {
            "ticker": "CVCB3",
            "order_price": 37.75,
            "order_type": "Buy",
            "quantity": 9,
            "subscription": false,
            "order_date": "04/02/2020"
        },
      {
            "ticker": "ENBR3",
            "order_price": 22.71,
            "order_type": "Buy",
            "quantity": 5,
            "subscription": false,
            "order_date": "04/02/2020"
        },
      {
            "ticker": "ENBR3",
            "order_price": 22.72,
            "order_type": "Buy",
            "quantity": 5,
            "subscription": false,
            "order_date": "04/02/2020"
        },
      {
            "ticker": "MYPK3",
            "order_price": 22.42,
            "order_type": "Buy",
            "quantity": 5,
            "subscription": false,
            "order_date": "04/02/2020"
        }
    ]
}
