{
    "orders": [
        {
            "ticker": "HGCR11",
            "order_price": 116.95,
            "order_type": "Buy",
            "quantity": 2,
            "subscription": false,
            "order_date": "29/07/2019",
            "base_date": 31,
            "ceiling_price": 128.00,
            "emoluments": 0.009,
            "tax": 0.06
        },
        {
            "ticker": "HGCR11",
            "order_price": 117.48,
            "order_type": "Buy",
            "quantity": 1,
            "subscription": false,
            "order_date": "07/10/2019",
            "ceiling_price": 132.00,
            "base_date": 31
        },
        {
            "ticker": "HGCR11",
            "order_price": 117.47,
            "order_type": "Buy",
            "quantity": 3,
            "subscription": false,
            "order_date": "07/10/2019",
            "base_date": 31,
            "emoluments": 0.01,
            "tax": 0.12
        },
        {
            "ticker": "HGCR11",
            "order_price": 125.99,
            "order_type": "Buy",
            "quantity": 3,
            "subscription": false,
            "order_date": "08/11/2019",
            "base_date": 31,
            "ceiling_price": 140.00,
            "emoluments": 0.005,
            "tax": 0.03
        },
        {
            "ticker": "HGCR11",
            "order_price": 110.05,
            "order_type": "Buy",
            "quantity": 3,
            "subscription": true,
            "order_date": "18/12/2019",
            "base_date": 31,
            "ceiling_price": 115.00
        }
    ]
}
