{
    "orders": [
        {
            "ticker": "HGLG11",
            "order_price": 144.77,
            "order_type": "Buy",
            "quantity": 1,
            "subscription": false,
            "order_date": "16/01/2019",
            "ceiling_price": "140.00",
            "base_date": 31
        },
        {
            "ticker": "HGLG11",
            "order_price": 144.78,
            "order_type": "Buy",
            "quantity": 14,
            "subscription": false,
            "order_date": "16/01/2019",
            "ceiling_price": "140.00",
            "base_date": 31,
            "tax": 0.59,
            "emoluments": 0.08
        },
        {
            "ticker": "HGLG11",
            "order_price": 153.00,
            "order_type": "Buy",
            "quantity": 1,
            "subscription": false,
            "order_date": "22/05/2019",
            "ceiling_price": "140.00",
            "base_date": 31,
            "tax": 0.04,
            "emoluments": 0.0
        },
        {
            "ticker": "HGLG11",
            "order_price": 147.59,
            "order_type": "Buy",
            "quantity": 1,
            "subscription": false,
            "order_date": "25/06/2019",
            "ceiling_price": "140.00",
            "base_date": 31,
            "emoluments": 0.006,
            "tax": 0.04
        },
        {
            "ticker": "HGLG11",
            "order_price": 142.97,
            "order_type": "Buy",
            "quantity": 8,
            "subscription": true,
            "order_date": "03/07/2019",
            "ceiling_price": "140.00",
            "base_date": 31
        }
    ]
}
